<svg xmlns="http://www.w3.org/2000/svg" width="205.414" height="155.858" viewBox="0 0 205.414 155.858">
  <g id="Group_208" data-name="Group 208" transform="translate(-79.97 -86.051)">
    <g id="Group_207" data-name="Group 207">
      <g id="phone-call-button" transform="translate(114.747 165.739)">
        <g id="call">
          <path id="Path_431" data-name="Path 431" d="M1.784,3.866A7.716,7.716,0,0,0,5.055,7.137l1.09-1.09a.4.4,0,0,1,.5-.1,5.184,5.184,0,0,0,1.784.3.468.468,0,0,1,.5.5V8.426a.468.468,0,0,1-.5.5A8.419,8.419,0,0,1,0,.5.468.468,0,0,1,.5,0H2.23a.468.468,0,0,1,.5.5,5.613,5.613,0,0,0,.3,1.784.61.61,0,0,1-.1.5Z" fill="#fff"/>
        </g>
      </g>
      <path id="Path_470" data-name="Path 470" d="M296.845,74.33c-13.169-.519-25.712-5.338-37.687-10.612s-23.84-11.118-36.7-13.9c-8.265-1.8-17.721-2.052-24.382,2.973-6.406,4.822-8.48,13.169-9.593,20.916-.839,5.828-1.333,11.961.954,17.416,1.595,3.784,4.425,6.974,6.382,10.6,6.809,12.623,2,28.19-5.383,40.518-3.462,5.782-7.476,11.3-10.149,17.453s-3.905,13.207-1.569,19.486c2.317,6.217,7.836,10.9,13.816,14.186,12.144,6.679,26.463,8.59,40.412,9.671,30.892,2.4,61.949,1.352,92.923.319,11.465-.384,22.977-.773,34.254-2.781,6.263-1.116,12.728-2.89,17.272-7.166a17.929,17.929,0,0,0,3.338-21.427c-6.487-11.418-24.422-14.253-28.957-26.506-2.494-6.744.069-14.256,3.7-20.511,7.779-13.421,20.82-25.192,21.509-40.529.477-10.542-5.8-21.084-15.5-26.068-10.161-5.222-24.251-4.565-31.746,4.082C322.038,71.362,308.472,74.787,296.845,74.33Z" transform="translate(-97.518 37.406)" fill="#4f44ff" opacity="0.1"/>
      <path id="Path_472" data-name="Path 472" d="M604.628,451.819a42.209,42.209,0,1,1-42.209-42.209A42.209,42.209,0,0,1,604.628,451.819Zm-47.087,22.344,31.311-31.31a2.72,2.72,0,0,0,0-3.852L585,435.175a2.715,2.715,0,0,0-3.847,0l-25.537,25.537-11.924-11.952a2.731,2.731,0,0,0-3.853,0l-3.853,3.875a2.731,2.731,0,0,0,0,3.853l17.7,17.7a2.72,2.72,0,0,0,3.853,0Z" transform="translate(-376.53 -285.943)" fill="#3acc6c"/>
    </g>
  </g>
</svg>
