<svg xmlns="http://www.w3.org/2000/svg" width="290.644" height="176.177" viewBox="0 0 290.644 176.177">
  <g id="Group_2751" data-name="Group 2751" transform="translate(-61.356 -96.423)">
    <g id="Group_2715" data-name="Group 2715" transform="translate(9 30.327)">
      <path id="Path_1670" data-name="Path 1670" d="M307.67,370.03s-26.708-33.847.381-75.914c25.12-39.008,64-20.293,88.519-56.1,62.112-90.725,194.7-20.977,174.805,56.126-9.627,37.314,29.3,38.673,9.464,75.969Z" transform="translate(-243.555 -129.01)" fill="#ebf3fa"/>
    </g>
    <g id="FAISAL_7" data-name="FAISAL 7" transform="translate(126.999 127.995)">
      <g id="Floor" transform="translate(0.001 60.58)">
        <path id="Floor-2" data-name="Floor" d="M56.263,304.629c31.4,16.419,82.313,16.419,113.713,0s31.4-43,0-59.4-82.313-16.419-113.713,0S24.859,288.225,56.263,304.629Z" transform="translate(-32.711 -232.919)" fill="#f5f5f5"/>
      </g>
      <g id="Shadows" transform="translate(102.545 100.166)">
        <path id="Shadow" d="M339.235,356.121c-5.838,3.364-15.273,3.364-21.1,0s-5.838-8.819,0-12.183,15.273-3.364,21.1,0S345.062,352.757,339.235,356.121Z" transform="translate(-313.761 -341.415)" fill="#e0e0e0"/>
      </g>
      <g id="Plants" transform="translate(9.429 86.659)">
        <g id="Plants-2" data-name="Plants" transform="translate(0 2.732)">
          <g id="_Group_" data-name="&lt;Group&gt;">
            <g id="_Group_2" data-name="&lt;Group&gt;">
              <g id="_Group_3" data-name="&lt;Group&gt;">
                <path id="_Path_" data-name="&lt;Path&gt;" d="M75.717,326.775c-.223-2.532-2.51-7.615-5.425-10.672s-7.253-5.108-10.1-3.838c-2.653,1.175-2.043,4.743,1.481,6.819s8.757,4.634,10.581,8.614l3.5,4.772Z" transform="translate(-58.55 -311.882)" fill="#27debf"/>
                <path id="_Path_2" data-name="&lt;Path&gt;" d="M75.717,326.775c-.223-2.532-2.51-7.615-5.425-10.672s-7.253-5.108-10.1-3.838c-2.653,1.175-2.043,4.743,1.481,6.819s8.757,4.634,10.581,8.614l3.5,4.772Z" transform="translate(-58.55 -311.882)" opacity="0.1"/>
              </g>
              <g id="_Group_4" data-name="&lt;Group&gt;" transform="translate(2.945 1.743)">
                <path id="_Path_3" data-name="&lt;Path&gt;" d="M81.332,333.257a.186.186,0,0,1-.179-.135c-2.452-8.494-10.056-14.9-14.394-16.094a.186.186,0,0,1-.131-.23.182.182,0,0,1,.23-.131c4.4,1.208,12.146,7.728,14.635,16.349a.186.186,0,0,1-.128.23Z" transform="translate(-66.621 -316.659)" fill="#fff"/>
              </g>
            </g>
            <g id="_Group_5" data-name="&lt;Group&gt;" transform="translate(2.558 10.754)">
              <g id="_Group_6" data-name="&lt;Group&gt;">
                <path id="_Path_4" data-name="&lt;Path&gt;" d="M79.853,354.588c-.533-1.386-2.474-3.583-5.473-5.28-3.284-1.875-7.319-2.518-8.374-4.108-1.266-1.912.259-3.955,3.488-3.838s9.227,3.984,10.7,10.468Z" transform="translate(-65.562 -341.357)" fill="#27debf"/>
              </g>
              <g id="_Group_7" data-name="&lt;Group&gt;" transform="translate(2.611 1.814)">
                <path id="_Path_5" data-name="&lt;Path&gt;" d="M84.888,356.2a.186.186,0,0,1-.171-.109c-3.284-7.173-9.173-9.275-11.818-9.388a.186.186,0,0,1-.179-.193.182.182,0,0,1,.193-.179c2.919.124,8.757,2.284,12.139,9.6a.186.186,0,0,1-.168.263Z" transform="translate(-72.72 -346.329)" fill="#fff"/>
              </g>
            </g>
          </g>
        </g>
        <g id="Plants-3" data-name="Plants" transform="translate(114.998)">
          <g id="_Group_8" data-name="&lt;Group&gt;" transform="translate(1.251)">
            <g id="_Group_9" data-name="&lt;Group&gt;">
              <path id="_Path_6" data-name="&lt;Path&gt;" d="M377.164,318.739a17.5,17.5,0,0,1,2.518-8.862c2.149-3.649,4.984-6.093,7.367-5.349,2.218.693,1.729,3.7-1.605,6.983a22.24,22.24,0,0,0-5.794,8.56l-1.879,4.3Z" transform="translate(-377.16 -304.394)" fill="#27debf"/>
            </g>
            <g id="_Group_10" data-name="&lt;Group&gt;">
              <path id="_Path_7" data-name="&lt;Path&gt;" d="M377.164,318.739a17.5,17.5,0,0,1,2.518-8.862c2.149-3.649,4.984-6.093,7.367-5.349,2.218.693,1.729,3.7-1.605,6.983a22.24,22.24,0,0,0-5.794,8.56l-1.879,4.3Z" transform="translate(-377.16 -304.394)" fill="#27debf"/>
            </g>
            <g id="_Group_11" data-name="&lt;Group&gt;" opacity="0.1">
              <path id="_Path_8" data-name="&lt;Path&gt;" d="M377.164,318.739a17.5,17.5,0,0,1,2.518-8.862c2.149-3.649,4.984-6.093,7.367-5.349,2.218.693,1.729,3.7-1.605,6.983a22.24,22.24,0,0,0-5.794,8.56l-1.879,4.3Z" transform="translate(-377.16 -304.394)"/>
            </g>
            <g id="_Group_12" data-name="&lt;Group&gt;" transform="translate(0.21 1.243)">
              <path id="_Path_9" data-name="&lt;Path&gt;" d="M377.9,322.416a.146.146,0,0,0,.124-.109c1.43-5.816,5.05-11.938,8.425-14.23a.146.146,0,1,0-.164-.237c-3.426,2.335-7.1,8.53-8.545,14.408a.142.142,0,0,0,.106.175Z" transform="translate(-377.737 -307.8)" fill="#fff"/>
            </g>
          </g>
          <g id="_Group_13" data-name="&lt;Group&gt;" transform="translate(0 10.374)">
            <path id="_Path_10" data-name="&lt;Path&gt;" d="M374.968,343.391a8.585,8.585,0,0,0,3.97,1.985c2.554.558,3.743-.6,3.743-.6s-.865-2.463-2.28-3.225a14.327,14.327,0,0,1,4.338,2.091s1.565.117,2.328-2.233c0,0-.843-1.492-3.908-2.456a10.264,10.264,0,0,1,4.6.5c.2.095,1.255-2.941,1.605-4.353s-.226-1.427-1.317-1.792-4.864-.773-5.6-.2-1.208,2.638-1.208,2.638a4.088,4.088,0,0,1-.365-2.266,3.977,3.977,0,0,0-2.368-.084c-1.273.365-1.23.974-1.284,1.883a9.623,9.623,0,0,0,.212,2.726s-.817-.8-.682-3.546a12.487,12.487,0,0,0-2.525,2.554C373.479,338.224,373.465,341.442,374.968,343.391Z" transform="translate(-373.732 -332.827)" fill="#27debf"/>
            <g id="_Group_14" data-name="&lt;Group&gt;" transform="translate(1.089 1.268)">
              <path id="_Path_11" data-name="&lt;Path&gt;" d="M376.853,345.743a.146.146,0,0,0,.135-.073c2.324-4.174,10.311-8.706,13.095-9.078a.146.146,0,1,0-.036-.285c-2.831.365-10.946,4.984-13.31,9.224a.138.138,0,0,0,.117.212Z" transform="translate(-376.716 -336.301)" fill="#fff"/>
            </g>
          </g>
        </g>
      </g>
      <g id="Device" transform="translate(26.114 0.004)">
        <g id="Device-2" data-name="Device">
          <path id="_Path_12" data-name="&lt;Path&gt;" d="M106.732,183.061l-.992-.573a3.229,3.229,0,0,1-1.459-2.528V92.944a3.229,3.229,0,0,1,1.459-2.528l40.135-23.172a3.229,3.229,0,0,1,2.919,0l.992.573a3.229,3.229,0,0,1,1.459,2.528v87.019a3.229,3.229,0,0,1-1.459,2.528l-40.135,23.169a3.229,3.229,0,0,1-2.919,0Z" transform="translate(-104.28 -66.894)" fill="#37474f"/>
          <path id="_Path_13" data-name="&lt;Path&gt;" d="M110.151,137.531l-5.444-3.141a2.985,2.985,0,0,0-.427,1.438v87a3.229,3.229,0,0,0,1.459,2.528l.992.573a3.229,3.229,0,0,0,2.919,0l.5-.288Z" transform="translate(-104.28 -109.764)" fill="#263238"/>
          <path id="_Path_14" data-name="&lt;Path&gt;" d="M115,99.393v87.027c0,.93.653,1.31,1.459.843l40.135-23.172a3.229,3.229,0,0,0,1.459-2.528V74.535c0-.93-.653-1.31-1.459-.843L116.459,96.864A3.229,3.229,0,0,0,115,99.393Z" transform="translate(-111.089 -71.085)" fill="#455a64"/>
          <path id="_Path_15" data-name="&lt;Path&gt;" d="M121.621,122.591l36.486-21.067c.69-.4,1.251-.077,1.251.73v69.411a2.766,2.766,0,0,1-1.251,2.167L121.621,194.9c-.69.4-1.251.077-1.251-.73V124.758a2.766,2.766,0,0,1,1.251-2.167Z" transform="translate(-114.499 -88.78)" fill="#fafafa"/>
          <g id="_Group_15" data-name="&lt;Group&gt;" transform="translate(11.621 38.268)" opacity="0.72">
            <path id="_Path_16" data-name="&lt;Path&gt;" d="M161.467,172.789c4.09-2.361,7.407-.449,7.407,4.276a16.38,16.38,0,0,1-7.407,12.832c-4.09,2.364-7.407.449-7.407-4.276A16.364,16.364,0,0,1,161.467,172.789Z" transform="translate(-147.518 -171.778)" fill="#7595f0"/>
            <path id="_Path_17" data-name="&lt;Path&gt;" d="M164.677,228.256c0-7.761-5.451-11.209-12.172-7.326l-4.2,2.426c-6.721,3.882-12.172,13.317-12.172,21.078v2.087l28.543-16.466Z" transform="translate(-136.13 -201.978)" fill="#7595f0"/>
          </g>
          <path id="_Path_18" data-name="&lt;Path&gt;" d="M172.3,111.766c.54-.314.978-.058.978.566a2.164,2.164,0,0,1-.978,1.693c-.54.314-.978.058-.978-.566A2.164,2.164,0,0,1,172.3,111.766Z" transform="translate(-146.86 -95.309)" fill="#263238"/>
          <g id="_Group_16" data-name="&lt;Group&gt;" transform="translate(20.166 16.87)">
            <path id="_Path_19" data-name="&lt;Path&gt;" d="M165.174,117.6c1.988-1.095,5.535-3.211,7.494-4.378.332-.2.6-.062.6.3a1.3,1.3,0,0,1-.606,1.007l-7.509,4.335c-.336.193-.606.055-.606-.306A1.244,1.244,0,0,1,165.174,117.6Z" transform="translate(-162.726 -113.132)" fill="#263238"/>
            <path id="_Path_20" data-name="&lt;Path&gt;" d="M160.1,128.26c.3-.175.551-.033.551.317a1.215,1.215,0,0,1-.551.952c-.3.175-.551.033-.551-.317a1.215,1.215,0,0,1,.551-.952Z" transform="translate(-159.55 -122.692)" fill="#263238"/>
          </g>
          <path id="_Path_21" data-name="&lt;Path&gt;" d="M170.6,334.535c1.095-.624,1.956-.117,1.956,1.131a4.324,4.324,0,0,1-1.956,3.39c-1.095.624-1.956.117-1.956-1.131a4.327,4.327,0,0,1,1.956-3.39Z" transform="translate(-145.158 -236.714)" fill="#263238"/>
        </g>
      </g>
      <g id="Check_Mark" data-name="Check Mark" transform="translate(59.769 70.068)">
        <g id="_Group_17" data-name="&lt;Group&gt;">
          <g id="_Group_18" data-name="&lt;Group&gt;">
            <path id="_Path_22" data-name="&lt;Path&gt;" d="M221.6,262.285l-4.4-2.554h0l-.044-.026h0c-2.189-1.237-5.188-1.054-8.512.865a24.207,24.207,0,0,0-8.085,8.242,25.172,25.172,0,0,0-4.013,12.734c0,3.857,1.35,6.568,3.532,7.834h0l4.47,2.554c2.189,1.408,5.323,1.281,8.779-.73,6.692-3.864,12.113-13.255,12.113-20.979C225.422,266.247,223.948,263.478,221.6,262.285Z" transform="translate(-196.533 -258.921)" fill="#69bef7"/>
            <g id="_Group_19" data-name="&lt;Group&gt;" transform="translate(0 0.025)">
              <path id="_Path_23" data-name="&lt;Path&gt;" d="M204.43,309.2l-4.378-2.5h0c-2.189-1.266-3.532-3.977-3.532-7.834a25.233,25.233,0,0,1,4.013-12.73l4.674,2.7a25.11,25.11,0,0,0-4.013,12.723C201.179,305.227,202.416,307.865,204.43,309.2Z" transform="translate(-196.52 -276.227)" fill="#7595f0"/>
              <path id="_Path_24" data-name="&lt;Path&gt;" d="M228.486,262.277c-2.156-1.047-5.035-.781-8.2,1.044a24.105,24.105,0,0,0-8.1,8.257l-4.674-2.7a24.175,24.175,0,0,1,8.085-8.242c3.324-1.919,6.323-2.1,8.512-.868h0l.047.029h0Z" transform="translate(-203.5 -258.989)" fill="#7595f0" opacity="0.57"/>
            </g>
          </g>
        </g>
        <g id="_Group_20" data-name="&lt;Group&gt;" transform="translate(10.067 7.267)">
          <path id="_Path_25" data-name="&lt;Path&gt;" d="M212.716,212.917l-1.675-.967-6.571,15.488,1.12.646Z" transform="translate(-199.701 -211.95)" fill="#fff"/>
          <path id="_Path_26" data-name="&lt;Path&gt;" d="M194.881,243.237l-1.678-.967-1.8,3.813,1.678.967Z" transform="translate(-191.4 -231.207)" fill="#fff"/>
          <g id="_Group_21" data-name="&lt;Group&gt;" transform="translate(1.678 0.967)">
            <path id="_Path_27" data-name="&lt;Path&gt;" d="M200.641,234.31,196,229.475l1.8-3.813,2.408,4.1,7.126-15.167,2.645,2.58Z" transform="translate(-196 -214.6)" fill="#f5f5f5"/>
          </g>
          <path id="_Path_28" data-name="&lt;Path&gt;" d="M191.4,252.72l1.678.967,4.641,4.834-1.675-.96Z" transform="translate(-191.4 -237.845)" fill="#e0e0e0"/>
        </g>
      </g>
      <g id="Character" transform="translate(99.185 21.741)">
        <g id="_Group_22" data-name="&lt;Group&gt;">
          <path id="_Path_29" data-name="&lt;Path&gt;" d="M346.52,140.134h0a7.17,7.17,0,0,0,7.169-7.17v-.423a6.075,6.075,0,0,0-6.075-6.071h-2.189a6.075,6.075,0,0,0-6.075,6.075v.423A7.17,7.17,0,0,0,346.52,140.134Z" transform="translate(-326.653 -126.47)" fill="#263238"/>
          <g id="_Group_23" data-name="&lt;Group&gt;" transform="translate(9.276 33.932)">
            <path id="_Path_30" data-name="&lt;Path&gt;" d="M333.173,351.481a18.972,18.972,0,0,1-2.736,2.379,1.161,1.161,0,0,0-.365.394c-.128.266-.328.93.894,1.357a4.546,4.546,0,0,0,3.773-.365c1-.628,1.051-1.937,2-2.682.7-.555,1.58-.693,2.145-1.416.394-.5.292-1.171.088-2-.226-.9-.328-1.587-.628-1.518l.047.416c-.365.595-2.31.774-3.171.365C335.205,348.405,333.716,350.886,333.173,351.481Z" transform="translate(-329.975 -300.867)" fill="#263238"/>
            <path id="_Path_31" data-name="&lt;Path&gt;" d="M335.042,347.829h0c.292-.266.576-.54.85-.839a23.584,23.584,0,0,0,1.58-2.328,2.62,2.62,0,0,0,.441-1.667l-.241-2.229,3.065-.215.365,3.006h0c.073.682-.489,1.288-1.485,2.145s-2.266,2.864-3.167,3.368-1.551.485-1.934.226S334.072,348.825,335.042,347.829Z" transform="translate(-332.694 -296.373)" fill="#b16668"/>
            <path id="_Path_32" data-name="&lt;Path&gt;" d="M361.834,358.133v-.46a11.026,11.026,0,0,1-2.3,4.035c-1.018.927-2.4,2-2.755,3.032s1.93,1.438,2.879,1.27a5.9,5.9,0,0,0,3.309-1.777c.547-.671.894-1.459,1.284-2s1.288-1.116,1.5-1.729a3.874,3.874,0,0,0-.186-1.693c-.164-.624-.31-1.2-.507-1.142v.365a2.554,2.554,0,0,1-1.613.544C362.972,358.586,361.827,358.491,361.834,358.133Z" transform="translate(-346.975 -307.246)" fill="#263238"/>
            <path id="_Path_33" data-name="&lt;Path&gt;" d="M361.249,357.986c.314-.281.631-.555.919-.817a9.315,9.315,0,0,0,1.967-3.138,4.422,4.422,0,0,0,.339-1.7V350.51H367.7V353.5h0v.08h0c-.157.671-1.635,2.452-2.474,3.612a4.685,4.685,0,0,1-2.919,1.941C361.081,359.274,360.461,358.891,361.249,357.986Z" transform="translate(-349.615 -302.699)" fill="#b16668"/>
            <path id="_Path_34" data-name="&lt;Path&gt;" d="M349.363,220.276c2.5,5.473-.091,24.676-.091,24.676.077.887,1.095,2.627,1.459,6.524.445,4.6-.7,16.167-.7,16.167a3.488,3.488,0,0,1-3.258.128s-3.072-17.415-3.649-21.99c-.5-4.013-1.459-13.387-1.459-13.387l-2.51,13.471a18.994,18.994,0,0,1,.981,3.9c.259,2.693.066,15.149.066,15.149a4.41,4.41,0,0,1-3.211.525s-3.649-17.05-3.937-20.294c-.168-1.937,2.04-25.672,2.04-25.672Z" transform="translate(-331.925 -219.47)" fill="#27debf"/>
            <path id="_Path_35" data-name="&lt;Path&gt;" d="M349.363,220.276c2.5,5.473-.091,24.676-.091,24.676.077.887,1.095,2.627,1.459,6.524.445,4.6-.7,16.167-.7,16.167a3.488,3.488,0,0,1-3.258.128s-3.072-17.415-3.649-21.99c-.5-4.013-1.459-13.387-1.459-13.387l-2.51,13.471a18.994,18.994,0,0,1,.981,3.9c.259,2.693.066,15.149.066,15.149a4.41,4.41,0,0,1-3.211.525s-3.649-17.05-3.937-20.294c-.168-1.937,2.04-25.672,2.04-25.672Z" transform="translate(-331.925 -219.47)" fill="#7595f0"/>
            <path id="_Path_36" data-name="&lt;Path&gt;" d="M346.568,243.321l-.81-4.462s-3.43-.711-4.988-2.189a8.854,8.854,0,0,0,4.057,2.7l.912,3.9-1.434,12.186Z" transform="translate(-336.831 -230.394)" opacity="0.3"/>
          </g>
          <g id="_Group_24" data-name="&lt;Group&gt;" transform="translate(6.943 15.631)">
            <path id="_Path_37" data-name="&lt;Path&gt;" d="M379.1,204.186c-.026-.365-.7-4.178-1.157-6.316l-4.491,1.376.8,3.933,3.78,3.036C379.218,205.981,379.124,204.543,379.1,204.186Z" transform="translate(-355.254 -187.45)" fill="#b16668"/>
            <path id="_Path_38" data-name="&lt;Path&gt;" d="M292.99,126.21l-2.12,3.893,3.3,2.831,3.025-4.8Z" transform="translate(-290.87 -117.53)" fill="#b16668"/>
            <path id="_Path_39" data-name="&lt;Path&gt;" d="M336.908,169.33c-2.105.022-4.426.788-5.221,2.437s-3.006,6.2-3.006,6.2,1.967,2.671,4.918,2.477Z" transform="translate(-326.819 -169.323)" fill="#27debf"/>
            <path id="_Path_40" data-name="&lt;Path&gt;" d="M336.908,169.33c-2.105.022-4.426.788-5.221,2.437s-3.006,6.2-3.006,6.2,1.967,2.671,4.918,2.477Z" transform="translate(-326.819 -169.323)" opacity="0.6"/>
            <path id="_Path_41" data-name="&lt;Path&gt;" d="M346.891,169.39l1.751.069c1.908.46,2.594,1.766,3.4,3.459a5.473,5.473,0,0,1,.15,4.127l-2.233,6.458s1.044,2.525,2.258,4.911c-5.6,3.127-12.595,1.481-14.281-.8-.073-.485.026-2.663-.109-5.148-.146-2.645-.507-5.633-.091-7.272.773-3.036,2.218-5.885,5.108-5.885Z" transform="translate(-332.446 -169.31)" fill="#f5f5f5"/>
            <path id="_Path_42" data-name="&lt;Path&gt;" d="M367.754,169.73c1.912.27,4.718.657,5.685,5.2.981,4.6,1.171,5.7,1.171,5.7a7.068,7.068,0,0,1-4.842,1.653C369.757,182.281,366.962,173.24,367.754,169.73Z" transform="translate(-351.547 -169.577)" fill="#27debf"/>
            <path id="_Path_43" data-name="&lt;Path&gt;" d="M367.754,169.73c1.912.27,4.718.657,5.685,5.2.981,4.6,1.171,5.7,1.171,5.7a7.068,7.068,0,0,1-4.842,1.653C369.757,182.281,366.962,173.24,367.754,169.73Z" transform="translate(-351.547 -169.577)" opacity="0.6"/>
            <path id="_Path_44" data-name="&lt;Path&gt;" d="M371.386,196.278c-.365-1.208-.73-2.587-1.076-4.068a29.81,29.81,0,0,0,.566,5.546Z" transform="translate(-353.26 -183.855)" fill="#ebebeb"/>
          </g>
          <g id="_Group_25" data-name="&lt;Group&gt;" transform="translate(13.428 2.897)">
            <path id="_Path_45" data-name="&lt;Path&gt;" d="M342.961,134.41c-.759.449-1.693,2.353-1.6,6.345.077,3.382,1.175,4.218,1.726,4.459a5.826,5.826,0,0,0,2.645-.077v2.029s-1.427,1.656-1.335,2.587,2.061,1.149,3.4.241a8.64,8.64,0,0,0,2.189-2.295v-4.9a1.285,1.285,0,0,0,1.824.175,2.448,2.448,0,0,0,.522-3.306,1.475,1.475,0,0,0-2.357.471,8.178,8.178,0,0,1-3.838-1.146A6.163,6.163,0,0,1,342.961,134.41Z" transform="translate(-341.353 -134.41)" fill="#b16668"/>
            <ellipse id="_Path_46" data-name="&lt;Path&gt;" cx="0.441" cy="0.427" rx="0.441" ry="0.427" transform="translate(3.777 5.939) rotate(-87.28)" fill="#263238"/>
            <path id="_Path_47" data-name="&lt;Path&gt;" d="M349.7,157.33l-.989.314a.511.511,0,0,0,.642.365A.544.544,0,0,0,349.7,157.33Z" transform="translate(-346.026 -148.967)" fill="#9a4a4d"/>
            <path id="_Path_48" data-name="&lt;Path&gt;" d="M342.012,144.424l.861-.6a.5.5,0,0,0-.73-.146A.551.551,0,0,0,342.012,144.424Z" transform="translate(-341.714 -140.235)" fill="#263238"/>
            <ellipse id="_Path_49" data-name="&lt;Path&gt;" cx="0.441" cy="0.427" rx="0.441" ry="0.427" transform="translate(0.472 5.625) rotate(-87.29)" fill="#263238"/>
            <path id="_Path_50" data-name="&lt;Path&gt;" d="M313.046,81.07l-.069,2.561-1.346-.42Z" transform="translate(-310.54 -76.126)" fill="#9a4a4d"/>
            <path id="_Path_51" data-name="&lt;Path&gt;" d="M353.36,160.9c1.095-.142,3.328-.784,3.674-1.671a2.291,2.291,0,0,1-.784,1.131,11.781,11.781,0,0,1-2.89,1.219Z" transform="translate(-348.979 -150.174)" fill="#9a4a4d"/>
          </g>
          <g id="_Group_26" data-name="&lt;Group&gt;" transform="translate(0 23.882)">
            <path id="_Path_52" data-name="&lt;Path&gt;" d="M271.84,125.56l12.351,3.251,3.649,15.331-11.745-3.411Z" transform="translate(-271.84 -125.369)" fill="#69bef7"/>
            <path id="_Path_53" data-name="&lt;Path&gt;" d="M315.118,220.25a2.217,2.217,0,0,1-2.229,1.113l-.179-.635Z" transform="translate(-309.733 -209.915)" opacity="0.15"/>
            <path id="_Path_54" data-name="&lt;Path&gt;" d="M326.88,221.56c.055.409.894,1.164,2.313,1.638a11.733,11.733,0,0,0,4.094.255l-.223-.763Z" transform="translate(-318.733 -210.747)" opacity="0.15"/>
            <path id="_Path_55" data-name="&lt;Path&gt;" d="M314.277,197.359l-.1-.471c-.055-.259.668-.27,1.62-.026l1.824.471c.949.248,1.766.657,1.824.916l.1.471Z" transform="translate(-310.661 -194.949)" opacity="0.15"/>
            <g id="_Group_27" data-name="&lt;Group&gt;" transform="translate(2.759)">
              <path id="_Path_56" data-name="&lt;Path&gt;" d="M312.115,192.558c-.036-.164.259-.2.657-.095l.73.2s-.215-1.018,1.383-.664a2.5,2.5,0,0,1,1.948,1.514l.77.219a1.538,1.538,0,0,1,.861.511l.091.292-6.363-1.675Z" transform="translate(-312.112 -191.925)" fill="#37474f"/>
              <path id="_Path_57" data-name="&lt;Path&gt;" d="M314.19,194.713c.584.142.825.219.912.62.1.46.139.8.139.8l2.817.73s-.135-.58-.179-.806.051-.365.5-.244l.036-.179L314,194.52Z" transform="translate(-313.311 -193.573)" fill="#37474f"/>
              <path id="_Path_58" data-name="&lt;Path&gt;" d="M314.067,197.479l-.1-.471c-.055-.259.668-.27,1.62-.026l1.824.471c.952.248,1.766.657,1.824.916l.1.471Z" transform="translate(-313.287 -195.026)" fill="#37474f"/>
            </g>
          </g>
          <path id="_Path_59" data-name="&lt;Path&gt;" d="M347.373,213.955l-3.784-3.036s-8.363,1.489-9.344,1.565a2.576,2.576,0,0,1-2.448-1.58c-.365-.963-1.036-.843-1.036-.843l.383,1.613c.091.39-2.262.711-3.568.27s-3.2.2-2.025,1.978,3.448,1.985,5.031,1.985a16.653,16.653,0,0,0,1.978-.131c.511-.066,1.022-.117,1.536-.153A133.631,133.631,0,0,0,347.373,213.955Z" transform="translate(-317.655 -179.559)" fill="#b16668"/>
          <path id="_Path_60" data-name="&lt;Path&gt;" d="M306.434,204.255l.547,1.956c.106.365,1.543,1.062,2.448,1.31s1.9.544,1.459,1.824c-.4,1.171-1.89,1.438-2.653,1.4a2.8,2.8,0,0,1-2.211-1.934c-.522-1.5-.241-3.09-.449-3.966S305.978,203.733,306.434,204.255Z" transform="translate(-305.176 -175.701)" fill="#b16668"/>
          <path id="_Path_61" data-name="&lt;Path&gt;" d="M369.065,168.464h0A4.061,4.061,0,0,1,365,164.4v-5.7h0a4.061,4.061,0,0,1,4.061,4.061Z" transform="translate(-342.944 -146.941)" fill="#263238"/>
        </g>
      </g>
    </g>
  </g>
</svg>
