<svg xmlns="http://www.w3.org/2000/svg" width="52.324" height="55.686" viewBox="0 0 52.324 55.686">
  <g id="import" transform="translate(-15.454 0)">
    <g id="Group_2737" data-name="Group 2737" transform="translate(15.454 0)">
      <path id="Path_1686" data-name="Path 1686" d="M86.025,10.949,65.213.287a2.616,2.616,0,0,0-2.385,0L42.015,10.949a2.616,2.616,0,0,0-1.423,2.328V51.8H87.448V13.277A2.615,2.615,0,0,0,86.025,10.949Z" transform="translate(-37.858 0)" fill="#69bef7"/>
      <path id="Path_1687" data-name="Path 1687" d="M46.969,15.8a2.616,2.616,0,0,1,1.423-2.328L69.2,2.809a2.612,2.612,0,0,1,.534-.2L65.213.287a2.616,2.616,0,0,0-2.385,0L42.015,10.949a2.616,2.616,0,0,0-1.423,2.328V51.8h6.377Z" transform="translate(-37.858 0)" fill="#7595f0"/>
      <path id="Path_1688" data-name="Path 1688" d="M130.035,175.867H99.317l-1.925.885v19.634L98.816,198h8.811v11.316H130.82l1.073-.77V176.752Z" transform="translate(-88.48 -156.739)" fill="#7595f0"/>
      <g id="Group_2729" data-name="Group 2729" transform="translate(8.912 19.128)">
        <path id="Path_1689" data-name="Path 1689" d="M102.768,176.752l1.925-.885H99.317l-1.925.885v19.634L98.816,198h5.376l-1.424-1.61Z" transform="translate(-97.392 -175.867)" fill="#6e60b8"/>
      </g>
      <path id="Path_1690" data-name="Path 1690" d="M125.761,151.584v-2.692a.6.6,0,0,0-.6-.6H90.152a.6.6,0,0,0-.6.6v2.692a.6.6,0,0,0,.6.6h35.014A.6.6,0,0,0,125.761,151.584Z" transform="translate(-81.497 -132.168)" fill="#dbedff"/>
      <path id="Path_1691" data-name="Path 1691" d="M95.158,151.584v-2.692a.6.6,0,0,1,.6-.6h-5.6a.6.6,0,0,0-.6.6v2.692a.6.6,0,0,0,.6.6h5.6A.6.6,0,0,1,95.158,151.584Z" transform="translate(-81.497 -132.168)" fill="#b5dcff"/>
      <g id="Group_2734" data-name="Group 2734" transform="translate(6.185 27.489)">
        <path id="Path_1692" data-name="Path 1692" d="M236.657,364.523h-5.184l-.493.488h-3.108l-.488-.488H222.2a.874.874,0,0,0-.874.874v10.409a.874.874,0,0,0,.874.874h14.458a.874.874,0,0,0,.874-.874V365.4A.874.874,0,0,0,236.657,364.523Z" transform="translate(-205.119 -352.366)" fill="#00d2fc"/>
        <path id="Path_1693" data-name="Path 1693" d="M87.651,364.523H82.467l-.753.4h-2.82l-.517-.4H73.193a.874.874,0,0,0-.874.874v10.409a.874.874,0,0,0,.874.874H87.651a.874.874,0,0,0,.874-.874V365.4A.874.874,0,0,0,87.651,364.523Z" transform="translate(-72.319 -352.366)" fill="#6ed6a2"/>
        <path id="Path_1694" data-name="Path 1694" d="M236.657,252.749h-5.184l-.641.377h-3.1l-.349-.377H222.2a.874.874,0,0,0-.874.874v10.409a.874.874,0,0,0,.874.874h14.458a.874.874,0,0,0,.874-.874V253.623A.874.874,0,0,0,236.657,252.749Z" transform="translate(-205.119 -252.749)" fill="#ffc365"/>
        <g id="Group_2730" data-name="Group 2730" transform="translate(16.206 12.157)">
          <path id="Path_1695" data-name="Path 1695" d="M224.6,375.806V365.4a.874.874,0,0,1,.874-.874H222.2a.874.874,0,0,0-.874.874v10.409a.874.874,0,0,0,.874.874h3.277A.874.874,0,0,1,224.6,375.806Z" transform="translate(-221.325 -364.523)" fill="#00c2fb"/>
        </g>
        <g id="Group_2731" data-name="Group 2731" transform="translate(0 12.157)">
          <path id="Path_1696" data-name="Path 1696" d="M75.6,375.806V365.4a.874.874,0,0,1,.874-.874H73.193a.874.874,0,0,0-.874.874v10.409a.874.874,0,0,0,.874.874H76.47A.874.874,0,0,1,75.6,375.806Z" transform="translate(-72.319 -364.523)" fill="#00c479"/>
        </g>
        <g id="Group_2732" data-name="Group 2732" transform="translate(16.206)">
          <path id="Path_1697" data-name="Path 1697" d="M224.6,264.032V253.623a.874.874,0,0,1,.874-.874H222.2a.874.874,0,0,0-.874.874v10.409a.874.874,0,0,0,.874.874h3.277a.874.874,0,0,1-.874-.874Z" transform="translate(-221.325 -252.749)" fill="#ffa90f"/>
        </g>
        <g id="Group_2733" data-name="Group 2733" transform="translate(6.058)">
          <path id="Path_1698" data-name="Path 1698" d="M277.027,364.523v5.765a.538.538,0,0,0,.538.538h3.014a.538.538,0,0,0,.538-.538v-5.765Z" transform="translate(-260.821 -352.366)" fill="#f27182"/>
          <path id="Path_1699" data-name="Path 1699" d="M128.021,364.523v5.765a.538.538,0,0,0,.538.538h3.014a.538.538,0,0,0,.538-.538v-5.765Z" transform="translate(-128.021 -352.366)" fill="#f27182"/>
          <path id="Path_1700" data-name="Path 1700" d="M277.027,252.749v5.765a.538.538,0,0,0,.538.538h3.014a.538.538,0,0,0,.538-.538v-5.765Z" transform="translate(-260.821 -252.749)" fill="#f27182"/>
        </g>
        <path id="Path_1701" data-name="Path 1701" d="M279.073,370.289v-5.765h-2.045v5.765a.538.538,0,0,0,.538.538h2.045A.538.538,0,0,1,279.073,370.289Z" transform="translate(-254.764 -352.367)" fill="#ed5469"/>
        <path id="Path_1702" data-name="Path 1702" d="M130.067,370.289v-5.765h-2.045v5.765a.538.538,0,0,0,.538.538H130.6A.538.538,0,0,1,130.067,370.289Z" transform="translate(-121.964 -352.367)" fill="#ed5469"/>
        <path id="Path_1703" data-name="Path 1703" d="M279.073,258.514v-5.765h-2.045v5.765a.538.538,0,0,0,.538.538h2.045A.538.538,0,0,1,279.073,258.514Z" transform="translate(-254.764 -252.749)" fill="#ed5469"/>
      </g>
      <g id="Group_2735" data-name="Group 2735" transform="translate(0 51.691)">
        <path id="Path_1704" data-name="Path 1704" d="M67.182,475.267H16.05a.6.6,0,0,0-.6.6v2.8a.6.6,0,0,0,.6.6H67.183a.6.6,0,0,0,.6-.6v-2.8A.6.6,0,0,0,67.182,475.267Z" transform="translate(-15.454 -475.267)" fill="#938493"/>
        <path id="Path_1705" data-name="Path 1705" d="M25.7,478.666v-2.8a.6.6,0,0,1,.6-.6H16.05a.6.6,0,0,0-.6.6v2.8a.6.6,0,0,0,.6.6H26.291A.6.6,0,0,1,25.7,478.666Z" transform="translate(-15.454 -475.267)" fill="#7b6c79"/>
      </g>
      <path id="Path_1706" data-name="Path 1706" d="M113.061,254.218l-6.216-4.452a.571.571,0,0,0-.9.464v2.1a.409.409,0,0,1-.409.409H97.987a.6.6,0,0,0-.6.6v2.692a.6.6,0,0,0,.6.6h7.546a.409.409,0,0,1,.409.409v2.1a.571.571,0,0,0,.9.464l6.216-4.453A.571.571,0,0,0,113.061,254.218Z" transform="translate(-88.479 -222.505)" fill="#00d2fc"/>
      <g id="Group_2736" data-name="Group 2736" transform="translate(8.912 31.155)">
        <path id="Path_1707" data-name="Path 1707" d="M105.942,290.43a.409.409,0,0,0-.409-.409H97.987a.6.6,0,0,1-.6-.6v2.045a.6.6,0,0,0,.6.6h7.546a.409.409,0,0,1,.409.409Z" transform="translate(-97.391 -289.102)" fill="#00c2fb"/>
        <path id="Path_1708" data-name="Path 1708" d="M183.132,287.01l-.78-.559-5.437,3.894a.571.571,0,0,1-.9-.464v2.045a.571.571,0,0,0,.9.464l6.216-4.452A.571.571,0,0,0,183.132,287.01Z" transform="translate(-167.462 -286.452)" fill="#00c2fb"/>
      </g>
    </g>
  </g>
</svg>
