<svg xmlns="http://www.w3.org/2000/svg" xmlns:xlink="http://www.w3.org/1999/xlink" width="20" height="20" viewBox="0 0 20 20">
  <defs>
    <linearGradient id="linear-gradient" x1="0.5" x2="0.5" y2="1" gradientUnits="objectBoundingBox">
      <stop offset="0" stop-color="#69bef7"/>
      <stop offset="1" stop-color="#7595f0"/>
    </linearGradient>
  </defs>
  <g id="Group_2753" data-name="Group 2753" transform="translate(-51 -330)">
    <path id="ic_lens_24px" d="M12,2A10,10,0,1,0,22,12,10,10,0,0,0,12,2Z" transform="translate(49 328)" fill="url(#linear-gradient)"/>
    <g id="Group_2752" data-name="Group 2752">
      <rect id="Rectangle_3" data-name="Rectangle 3" width="2" height="2" rx="0.3" transform="translate(57 336)" fill="#fff"/>
      <rect id="Rectangle_3-2" data-name="Rectangle 3" width="2" height="2" rx="0.3" transform="translate(60 336)" fill="#fff"/>
      <rect id="Rectangle_3-3" data-name="Rectangle 3" width="2" height="2" rx="0.3" transform="translate(63 336)" fill="#fff"/>
      <rect id="Rectangle_3-4" data-name="Rectangle 3" width="2" height="2" rx="0.3" transform="translate(57 339)" fill="#fff"/>
      <rect id="Rectangle_3-5" data-name="Rectangle 3" width="2" height="2" rx="0.3" transform="translate(60 339)" fill="#fff"/>
      <rect id="Rectangle_3-6" data-name="Rectangle 3" width="2" height="2" rx="0.3" transform="translate(63 339)" fill="#fff"/>
      <rect id="Rectangle_3-7" data-name="Rectangle 3" width="2" height="2" rx="0.3" transform="translate(57 342)" fill="#fff"/>
      <rect id="Rectangle_3-8" data-name="Rectangle 3" width="2" height="2" rx="0.3" transform="translate(60 342)" fill="#fff"/>
      <rect id="Rectangle_3-9" data-name="Rectangle 3" width="2" height="2" rx="0.3" transform="translate(63 342)" fill="#fff"/>
    </g>
  </g>
</svg>
